#Command: "C:\Program Files (x86)\Microsoft Visual Studio\2017\Professional\VC\Tools\MSVC\14.11.25503\bin\HostX86\x64\link.exe" /ERRORREPORT:PROMPT @C:\Users\100527945\AppData\Local\Temp\tmp004634e4a6fc4f15a2ff71d4780c4aa6.rsp /incremental /nologo /fullbuild
^C:\USERS\100527945\DOCUMENTS\ENGINES TUTORIALS\CONTROLLERPLUGIN\CONTROLLERPLUGIN\CONTROLLERPLUGIN\X64\DEBUG\OUTPUTHANDLER.OBJ|C:\USERS\100527945\DOCUMENTS\ENGINES TUTORIALS\CONTROLLERPLUGIN\CONTROLLERPLUGIN\CONTROLLERPLUGIN\X64\DEBUG\WRAPPER.OBJ
C:\USERS\100527~1\APPDATA\LOCAL\TEMP\LNK{A82C2358-73F1-49A5-843E-2F8BBF26D6A5}.TMP
