#Command: "C:\Program Files (x86)\Microsoft Visual Studio\2017\Professional\VC\Tools\MSVC\14.11.25503\bin\HostX86\x64\link.exe" /ERRORREPORT:PROMPT @C:\Users\100527945\AppData\Local\Temp\tmp4fc0b45db0f94e21a16419abf8a8a29e.rsp /incremental /nologo /fullbuild
^C:\USERS\100527945\DOCUMENTS\ENGINES TUTORIALS\CONTROLLERPLUGIN\CONTROLLERPLUGIN\CONTROLLERPLUGIN\X64\DEBUG\OUTPUTHANDLER.OBJ|C:\USERS\100527945\DOCUMENTS\ENGINES TUTORIALS\CONTROLLERPLUGIN\CONTROLLERPLUGIN\CONTROLLERPLUGIN\X64\DEBUG\WRAPPER.OBJ
C:\USERS\100527~1\APPDATA\LOCAL\TEMP\LNK{C966D45A-523D-4DD7-80E1-D69591FB7B5C}.TMP
